^C:\USERS\LEE SUNG HOON\DESKTOP\WORKSPACE\K-MEANS-ALGORITHM\DEBUG\MAIN.OBJ
C:\USERS\LEE SUNG HOON\DESKTOP\WORKSPACE\K-MEANS-ALGORITHM\DEBUG\K-MEANS-ALGORITHM.EXE
C:\USERS\LEE SUNG HOON\DESKTOP\WORKSPACE\K-MEANS-ALGORITHM\DEBUG\K-MEANS-ALGORITHM.ILK
C:\USERS\LEE SUNG HOON\DESKTOP\WORKSPACE\K-MEANS-ALGORITHM\DEBUG\K-MEANS-ALGORITHM.PDB
